{
    "mongoURI": "mongodb://localhost:27017/devconnector",
    "jwtSecret": "mysecrettoken",
    "githubClientId": "06c37be56e13c5e156fa",
    "githubClientSecret": "92022b097ccab7d65039e0586c276da18839a13b"
}